Mike	22:25 3/6/2004	130
Jim	22:25 3/6/2004	113
Tom	22:25 3/6/2004	105
Lana	22:25 3/6/2004	130
TomH	22:25 3/6/2004	125
Mike	22:26 3/6/2004	153
TomH	22:26 3/6/2004	174
Mike	2:23 1/1/2019	98
Mike	2:25 1/1/2019	132
Jim	2:25 1/1/2019	152
Mike	19:29 1/4/2019	138
Jim	19:29 1/4/2019	136
Mike	19:58 1/4/2019	91
Tom	20:6 1/4/2019	109
Mike	20:6 1/4/2019	187
Jim	20:7 1/4/2019	144
Mike	17:39 1/0/2019	138
Tom	17:50 1/0/2019	117
Mike	17:50 1/0/2019	133
Jim	17:50 1/0/2019	177
Mike	17:53 1/0/2019	128
Jim	17:53 1/0/2019	109
Mike	18:39 1/0/2019	117
Jim	18:39 1/0/2019	121
Lana	18:41 1/0/2019	124
Mike	18:41 1/0/2019	132
Jim	18:41 1/0/2019	158
Mike	19:3 1/0/2019	92
Jim	19:3 1/0/2019	120
asd123	19:5 1/0/2019	155
TomH	20:2 1/0/2019	178
Mike	20:2 1/0/2019	110
Jim	20:2 1/0/2019	154
asd123	20:3 1/0/2019	153
Lana	20:3 1/0/2019	117
Mike	21:5 1/0/2019	140
Jim	21:5 1/0/2019	129
Mike	21:6 1/0/2019	149
TomH	21:7 1/0/2019	136
Lana	21:7 1/0/2019	144
Mike	21:30 1/0/2019	137
Mike	21:36 1/0/2019	114
Jim	20:7 1/0/2019	120
Jim	20:7 1/0/2019	123
Mike	20:10 1/0/2019	144
Mike	19:16 2/0/2019	23
Mike	19:21 2/0/2019	10
Mike	19:22 2/0/2019	13
Mike	19:36 2/0/2019	20
Mike	21:32 2/0/2019	126
Mike	22:33 2/0/2019	159
Mike	22:38 2/0/2019	111
Jim	22:38 2/0/2019	209
Mike	22:42 2/0/2019	145
Jim	22:42 2/0/2019	141
Mike	22:44 2/0/2019	98
Jim	22:44 2/0/2019	112
Mike	22:58 2/0/2019	186
Jim	22:58 2/0/2019	148
Mike	23:26 2/0/2019	95
Mike	23:27 2/0/2019	124
Jim	23:27 2/0/2019	106
Mike	23:29 2/0/2019	97
Jim	23:29 2/0/2019	93
Tom	23:29 2/0/2019	109
Mike	23:31 2/0/2019	130
Jim	23:31 2/0/2019	98
Tom	23:31 2/0/2019	177
Mike	0:1 2/1/2019	116
Jim	0:1 2/1/2019	129
Tom	0:1 2/1/2019	162
Mike	0:3 2/1/2019	143
Jim	0:3 2/1/2019	171
Tom	0:3 2/1/2019	125
Mike	0:45 2/1/2019	148
Jim	0:45 2/1/2019	105
Tom	0:45 2/1/2019	111
Mike	0:49 2/1/2019	122
Jim	0:49 2/1/2019	124
Tom	0:49 2/1/2019	111
Mike	0:55 2/1/2019	138
Jim	0:55 2/1/2019	141
Tom	0:55 2/1/2019	141
Mike	0:59 2/1/2019	114
Jim	0:59 2/1/2019	121
Tom	0:59 2/1/2019	169
Mike	1:1 2/1/2019	125
Jim	1:1 2/1/2019	126
Tom	1:1 2/1/2019	113
Mike	1:9 2/1/2019	121
Jim	1:9 2/1/2019	99
Tom	1:9 2/1/2019	150
Mike	1:12 2/1/2019	123
Jim	1:12 2/1/2019	102
Tom	1:12 2/1/2019	220
Mike	1:16 2/1/2019	127
Jim	1:16 2/1/2019	122
Tom	1:16 2/1/2019	76
Mike	1:18 2/1/2019	170
Jim	1:18 2/1/2019	145
Tom	1:19 2/1/2019	136
Mike	1:20 2/1/2019	105
Tom	1:20 2/1/2019	100
Jim	1:20 2/1/2019	108
Mike	1:24 2/1/2019	98
Jim	1:24 2/1/2019	130
Tom	1:25 2/1/2019	163
Mike	1:29 2/1/2019	98
Jim	1:29 2/1/2019	112
Tom	1:29 2/1/2019	107
Mike	1:31 2/1/2019	145
Jim	1:31 2/1/2019	100
Tom	1:31 2/1/2019	132
Mike	1:37 2/1/2019	170
Jim	1:37 2/1/2019	119
Tom	1:37 2/1/2019	123
Mike	1:45 2/1/2019	116
Jim	1:45 2/1/2019	150
Tom	1:45 2/1/2019	174
Mike	1:48 2/1/2019	114
Jim	1:48 2/1/2019	132
Tom	1:48 2/1/2019	145
Mike	1:57 2/1/2019	121
Jim	1:57 2/1/2019	121
Tom	1:57 2/1/2019	120
Mike	2:0 2/1/2019	166
Jim	2:0 2/1/2019	100
Tom	2:0 2/1/2019	107
Mike	2:2 2/1/2019	126
Jim	2:2 2/1/2019	131
Tom	2:2 2/1/2019	123
Mike	2:5 2/1/2019	109
Jim	2:5 2/1/2019	134
Tom	2:5 2/1/2019	145
Mike	2:9 2/1/2019	121
Jim	2:9 2/1/2019	146
Tom	2:9 2/1/2019	134
Mike	2:13 2/1/2019	90
Mike	19:26 2/4/2019	125
Jim	19:26 2/4/2019	122
Mike	19:30 2/4/2019	130
Jim	19:30 2/4/2019	141
Mike	19:31 2/4/2019	165
Jim	19:31 2/4/2019	132
Mike	19:34 2/4/2019	128
Jim	19:34 2/4/2019	106
Mike	19:41 2/4/2019	171
Jim	19:41 2/4/2019	155
Mike	19:43 2/4/2019	130
Jim	19:43 2/4/2019	149
Mike	19:44 2/4/2019	126
Jim	19:45 2/4/2019	97
Mike	19:51 2/4/2019	121
Jim	19:51 2/4/2019	130
Mike	19:55 2/4/2019	111
Jim	19:55 2/4/2019	108
Mike	20:7 2/4/2019	112
Jim	20:7 2/4/2019	129
Mike	20:11 2/4/2019	124
Jim	20:11 2/4/2019	101
Mike	2:23 2/5/2019	136
Jim	2:24 2/5/2019	114
Mike	2:28 2/5/2019	140
Jim	2:28 2/5/2019	112
Mike	2:30 2/5/2019	150
Jim	2:30 2/5/2019	112
Mike	2:47 2/5/2019	123
Jim	2:47 2/5/2019	138
Mike	2:49 2/5/2019	122
Jim	2:49 2/5/2019	96
Mike	3:3 2/5/2019	132
Jim	3:3 2/5/2019	120
Mike	3:12 2/5/2019	156
Jim	3:12 2/5/2019	104
Mike	3:15 2/5/2019	180
Jim	3:15 2/5/2019	127
Mike	3:22 2/5/2019	113
Jim	3:22 2/5/2019	103
Mike	3:24 2/5/2019	136
Jim	3:24 2/5/2019	127
Mike	3:27 2/5/2019	163
Jim	3:27 2/5/2019	97
Mike	3:32 2/5/2019	164
Jim	3:32 2/5/2019	155
Mike	3:34 2/5/2019	150
Jim	3:34 2/5/2019	123
Mike	3:38 2/5/2019	147
Jim	3:38 2/5/2019	175
Mike	3:41 2/5/2019	167
Jim	3:41 2/5/2019	115
Mike	3:45 2/5/2019	129
Jim	3:45 2/5/2019	168
Mike	3:48 2/5/2019	145
Jim	3:48 2/5/2019	75
Mike	3:50 2/5/2019	123
Jim	3:50 2/5/2019	126
Mike	3:53 2/5/2019	131
Jim	3:53 2/5/2019	114
Mike	3:58 2/5/2019	104
Jim	3:58 2/5/2019	159
Mike	4:1 2/5/2019	136
Jim	4:1 2/5/2019	123
Mike	4:8 2/5/2019	106
Jim	4:8 2/5/2019	112
Mike	4:15 2/5/2019	140
Jim	4:15 2/5/2019	146
Mike	4:18 2/5/2019	95
Jim	4:18 2/5/2019	138
Mike	14:0 2/5/2019	152
Jim	14:0 2/5/2019	155
Mike	14:1 2/5/2019	105
Jim	14:1 2/5/2019	141
Mike	14:14 2/5/2019	119
Jim	14:14 2/5/2019	160
Mike	14:20 2/5/2019	100
Jim	14:20 2/5/2019	109
Mike	14:26 2/5/2019	136
Jim	14:26 2/5/2019	134
Tom	14:26 2/5/2019	113
Mike	14:31 2/5/2019	118
Jim	14:31 2/5/2019	149
Mike	14:33 2/5/2019	166
Jim	14:33 2/5/2019	138
Mike	14:35 2/5/2019	145
Jim	14:35 2/5/2019	111
Mike	14:40 2/5/2019	140
Jim	14:40 2/5/2019	135
Mike	14:44 2/5/2019	103
Jim	14:44 2/5/2019	121
Mike	14:47 2/5/2019	86
Jim	14:47 2/5/2019	154
Mike	14:49 2/5/2019	113
Jim	14:49 2/5/2019	191
Mike	14:55 2/5/2019	224
Jim	14:55 2/5/2019	101
Mike	14:58 2/5/2019	92
Jim	14:58 2/5/2019	118
Mike	15:6 2/5/2019	154
Jim	15:6 2/5/2019	134
Mike	15:12 2/5/2019	167
Jim	15:12 2/5/2019	128
Mike	16:31 2/5/2019	120
Jim	16:31 2/5/2019	109
Mike	16:42 2/5/2019	124
Jim	16:42 2/5/2019	163
Mike	16:55 2/5/2019	154
Jim	16:55 2/5/2019	129
Mike	16:56 2/5/2019	141
Jim	16:56 2/5/2019	124
Mike	17:1 2/5/2019	129
Jim	17:1 2/5/2019	135
Mike	17:5 2/5/2019	142
Jim	17:5 2/5/2019	109
Mike	17:15 2/5/2019	120
Jim	17:15 2/5/2019	114
Mike	17:18 2/5/2019	132
Jim	17:18 2/5/2019	114
Mike	17:31 2/5/2019	131
Jim	17:31 2/5/2019	96
Mike	17:33 2/5/2019	108
Jim	17:34 2/5/2019	197
Mike	17:38 2/5/2019	126
Jim	17:38 2/5/2019	146
Mike	17:40 2/5/2019	129
Jim	17:40 2/5/2019	105
Mike	17:52 2/5/2019	167
Jim	17:52 2/5/2019	141
Mike	17:55 2/5/2019	127
Jim	17:55 2/5/2019	93
Mike	18:0 2/5/2019	141
Jim	18:1 2/5/2019	181
Mike	18:2 2/5/2019	156
Jim	18:2 2/5/2019	151
Mike	18:11 2/5/2019	131
Jim	18:11 2/5/2019	135
Mike	18:13 2/5/2019	100
Jim	18:13 2/5/2019	130
Mike	18:17 2/5/2019	175
Jim	18:17 2/5/2019	150
Mike	18:18 2/5/2019	145
Jim	18:18 2/5/2019	130
Mike	18:24 2/5/2019	118
Jim	18:24 2/5/2019	104
Mike	18:30 2/5/2019	152
Jim	18:30 2/5/2019	101
Mike	18:50 2/5/2019	87
Jim	18:50 2/5/2019	91
Mike	18:53 2/5/2019	124
Jim	18:53 2/5/2019	107
Mike	18:58 2/5/2019	127
Jim	18:58 2/5/2019	150
Mike	19:1 2/5/2019	121
Jim	19:1 2/5/2019	119
Mike	19:3 2/5/2019	85
Jim	19:3 2/5/2019	105
Mike	19:9 2/5/2019	84
Jim	19:9 2/5/2019	149
Mike	19:16 2/5/2019	120
Jim	19:16 2/5/2019	168
Mike	19:18 2/5/2019	136
Jim	19:18 2/5/2019	89
Tom	19:18 2/5/2019	125
Mike	18:31 2/2/2019	140
Jim	18:31 2/2/2019	157
Mike	20:51 2/5/2019	21
Mike	20:51 2/5/2019	16
Mike	21:6 2/5/2019	10
Jim	21:6 2/5/2019	7
Mike	21:7 2/5/2019	7
Mike	21:29 2/5/2019	19
Mike	21:29 2/5/2019	14
Mike	21:31 2/5/2019	17
Mike	21:34 2/5/2019	135
Mike	21:37 2/5/2019	121
Jim	21:37 2/5/2019	192
Mike	21:39 2/5/2019	123
Jim	21:39 2/5/2019	140
Mike	12:45 2/6/2019	111
Jim	12:45 2/6/2019	162
Tom	12:45 2/6/2019	147
Mike	12:48 2/6/2019	138
Jim	12:48 2/6/2019	92
Tom	12:48 2/6/2019	126
Mike	12:58 2/6/2019	130
Jim	12:58 2/6/2019	139
Tom	12:58 2/6/2019	174
Mike	16:45 2/6/2019	160
Jim	16:45 2/6/2019	160
Tom	16:45 2/6/2019	90
Mike	17:42 2/6/2019	146
Jim	17:42 2/6/2019	117
Tom	17:42 2/6/2019	154
Mike	17:58 2/6/2019	108
Jim	17:58 2/6/2019	151
Tom	17:58 2/6/2019	123
Mike	17:58 2/6/2019	129
Jim	17:58 2/6/2019	148
Tom	17:58 2/6/2019	105
Lana	17:59 2/6/2019	109
TomH	17:59 2/6/2019	115
asd123	17:59 2/6/2019	126
Mike	18:0 2/6/2019	144
Jim	18:0 2/6/2019	119
Tom	18:0 2/6/2019	155
Lana	18:0 2/6/2019	156
TomH	18:0 2/6/2019	140
asd123	18:1 2/6/2019	129
Mike	18:37 2/6/2019	139
Jim	18:37 2/6/2019	122
Tom	18:37 2/6/2019	97
Mike	22:17 2/6/2019	140
Jim	22:17 2/6/2019	136
Tom	22:17 2/6/2019	121
Mike	22:49 2/6/2019	153
Jim	22:49 2/6/2019	120
Tom	22:49 2/6/2019	129
Mike	23:28 2/6/2019	133
Jim	23:28 2/6/2019	144
Tom	23:28 2/6/2019	102
Lana	23:28 2/6/2019	143
TomH	23:28 2/6/2019	127
asd123	23:28 2/6/2019	132
Mike	1:5 2/0/2019	126
Jim	1:5 2/0/2019	147
Tom	1:5 2/0/2019	113
Mike	2:18 2/0/2019	68
Jim	2:18 2/0/2019	182
Tom	2:18 2/0/2019	113
Mike	2:22 2/0/2019	107
Jim	2:22 2/0/2019	143
Tom	2:22 2/0/2019	90
Lana	2:22 2/0/2019	147
TomH	2:22 2/0/2019	140
Mike	3:20 2/0/2019	119
Jim	3:20 2/0/2019	175
Jim	4:30 2/0/2019	109
Mike	4:30 2/0/2019	146
Tom	4:30 2/0/2019	111
Mike	4:31 2/0/2019	139
Jim	4:31 2/0/2019	154
Tom	4:31 2/0/2019	112
Mike	4:32 2/0/2019	148
Jim	4:32 2/0/2019	129
Mike	4:33 2/0/2019	121
Tom	4:33 2/0/2019	108
Jim	4:35 2/0/2019	118
Mike	4:35 2/0/2019	138
Mike	15:51 2/0/2019	180
Jim	15:51 2/0/2019	117
Tom	15:51 2/0/2019	167
Mike	15:52 2/0/2019	125
Jim	15:52 2/0/2019	130
Mike	16:6 2/0/2019	133
Tom	16:6 2/0/2019	117
Jim	16:6 2/0/2019	117
Jim	16:15 2/0/2019	101
Mike	16:15 2/0/2019	108
Mike	16:17 2/0/2019	149
Jim	17:9 2/0/2019	142
Mike	17:9 2/0/2019	104
Mike	17:40 2/0/2019	123
Jim	17:40 2/0/2019	137
Tom	17:40 2/0/2019	138
Jim	20:12 2/0/2019	78
Tom	20:12 2/0/2019	132
Mike	20:34 2/0/2019	108
Jim	20:34 2/0/2019	121
Mike	23:24 2/0/2019	95
Jim	23:24 2/0/2019	112
Mike	23:26 2/0/2019	138
Jim	23:26 2/0/2019	103
Tom	23:26 2/0/2019	185
Mike	23:29 2/0/2019	101
Jim	23:29 2/0/2019	165
Tom	23:29 2/0/2019	122
Mike	11:46 2/1/2019	123
Jim	11:46 2/1/2019	96
Mike	11:54 2/1/2019	131
Jim	11:54 2/1/2019	158
Mike	11:57 2/1/2019	125
Jim	11:57 2/1/2019	96
Mike	12:15 2/1/2019	128
Mike	11:39 2/1/2019	104
Jim	11:39 2/1/2019	194
Mike	11:40 2/1/2019	182
Tom	11:41 2/1/2019	138
Mike	11:59 2/1/2019	154
Jim	11:59 2/1/2019	98
