Mike	22:25 3/6/2004	130
Jim	22:25 3/6/2004	113
Tom	22:25 3/6/2004	105
Lana	22:25 3/6/2004	130
TomH	22:25 3/6/2004	125
Mike	22:26 3/6/2004	153
TomH	22:26 3/6/2004	174
Mike	2:23 1/1/2019	98
Mike	2:25 1/1/2019	132
Jim	2:25 1/1/2019	152
Mike	19:29 1/4/2019	138
Jim	19:29 1/4/2019	136
Mike	19:58 1/4/2019	91
Tom	20:6 1/4/2019	109
Mike	20:6 1/4/2019	187
Jim	20:7 1/4/2019	144
Mike	17:39 1/0/2019	138
Tom	17:50 1/0/2019	117
Mike	17:50 1/0/2019	133
Jim	17:50 1/0/2019	177
Mike	17:53 1/0/2019	128
Jim	17:53 1/0/2019	109
Mike	18:39 1/0/2019	117
Jim	18:39 1/0/2019	121
Lana	18:41 1/0/2019	124
Mike	18:41 1/0/2019	132
Jim	18:41 1/0/2019	158
Mike	19:3 1/0/2019	92
Jim	19:3 1/0/2019	120
asd123	19:5 1/0/2019	155
<<<<<<< HEAD
TomH	20:2 1/0/2019	178
Mike	20:2 1/0/2019	110
Jim	20:2 1/0/2019	154
asd123	20:3 1/0/2019	153
Lana	20:3 1/0/2019	117
Mike	21:5 1/0/2019	140
Jim	21:5 1/0/2019	129
Mike	21:6 1/0/2019	149
TomH	21:7 1/0/2019	136
Lana	21:7 1/0/2019	144
Mike	21:30 1/0/2019	137
Mike	21:36 1/0/2019	114
=======
Jim	20:7 1/0/2019	120
Jim	20:7 1/0/2019	123
Mike	20:10 1/0/2019	144
>>>>>>> 02696b5854713cd8ee9e393b2d013ce5c8406cef
Mike	14:18 2/6/2019	118
Jim	14:18 2/6/2019	133
Tom	14:18 2/6/2019	138
Mike	14:26 2/6/2019	105
Jim	14:26 2/6/2019	109
Tom	14:26 2/6/2019	92
Mike	14:28 2/6/2019	135
Jim	14:28 2/6/2019	161
Lana	14:28 2/6/2019	127
Mike	14:38 2/6/2019	103
Jim	14:38 2/6/2019	145
Lana	14:38 2/6/2019	131
Mike	14:53 2/6/2019	118
Jim	14:53 2/6/2019	118
Tom	14:53 2/6/2019	149
Mike	16:40 2/6/2019	134
Jim	16:40 2/6/2019	107
Tom	16:40 2/6/2019	156
